667285 55773 509
532017 104263 470
616249 950856 525
764630 605684 509
202076 439928 449
134970 515717 470
802775 889188 525
450012 801960 509
73939 737254 509
170016 609693 470
448022 257156 449
157372 462442 449
293343 805685 509
5434 955371 525
593731 921431 525
390970 883552 525
807240 220650 509
82591 87318 333
820640 873535 525
607057 754191 509
604653 484142 470
421649 869280 525
615852 463845 470
309765 933052 525
428570 265224 449
797960 256947 509
807506 565353 509
768167 59718 509
316299 335994 384
828835 80054 509
359238 668190 509
613260 497834 470
599376 5530 470
749531 396561 509
967114 906751 507
624262 495860 470
422047 322028 449
628653 854431 525
370187 72652 443
129386 106451 349
317756 373039 441
44688 899931 525
477936 306952 449
284082 731554 509
687154 765987 504
418019 533633 470
758011 62078 509
795691 960251 525
400601 688392 509
245023 594793 470
482760 34098 449
55653 949321 525
779647 326908 509
163427 999933 525
621073 475866 470
492011 776151 509
473212 346735 449
233615 534064 470
353145 560613 470
465171 81144 449
984120 764114 525
791129 74913 509
664765 306153 509
286094 146086 443
893758 386478 525
972798 656389 525
541999 916251 525
731771 179334 509
351244 88633 443
148950 846124 525
530046 657308 509
974185 813123 525
909517 233686 525
834808 325082 509
757002 707556 424
405386 707574 509
614448 758631 509
521759 339419 470
345656 78631 443
615145 440296 470
824613 140258 509
615320 372437 470
934259 396659 525
822042 942098 525
51229 104111 351
981118 833919 525
983474 588769 525
937468 850452 476
865242 241034 525
278581 614690 470
45358 379381 443
399233 418311 449
902329 551690 525
479512 655767 509
984649 956646 458
963926 264219 525
41646 374854 443
765282 904600 525
94982 846241 525
904594 435952 525
862082 176384 525
916680 464016 525
651381 724443 504
616317 400241 470
862005 708577 525
420234 47590 449
689726 654091 442
456660 706971 509
707137 261196 509
491919 993801 525
486940 269032 449
695863 474070 509
892589 570361 525
997117 251255 525
726548 411325 509
850699 627248 525
241238 396583 441
568407 820036 509
359587 542045 470
708392 984997 525
733379 497654 509
134135 850983 525
411211 345740 449
923678 525918 525
753582 535323 509
29302 505028 449
758676 758489 362
365120 473079 449
33112 883994 525
366568 281207 441
563127 695180 509
942034 58378 525
63581 337215 443
152142 843004 525
747219 856159 525
381885 427104 449
319562 616811 470
812700 469152 509
839942 221688 525
534008 391697 470
759010 927701 525
998736 752877 525
176618 444152 449
916557 124976 525
118673 640776 509
663966 129548 509
171824 925682 525
726860 543822 509
359966 165722 443
102619 318029 443
90408 821102 509
171580 120268 383
735686 129093 509
458822 828249 509
435645 448587 400
137637 368721 443
198741 106126 383
367952 522205 470
701301 604121 509
269371 404084 441
499288 294499 449
878489 80229 525
104492 572842 470
66579 84607 351
201851 910361 525
870880 597398 525
284293 450586 449
210564 419578 449
119744 436088 449
206270 690243 509
76747 267197 443
262244 429826 449
512621 894061 525
240499 644897 509
608279 659212 509
288188 377569 441
512102 559631 452
933909 530085 525
835953 845388 525
471820 210493 449
95646 960446 525
683042 779678 504
152857 177882 383
869493 291098 525
439740 890396 525
831124 615544 509
241158 424243 449
116372 385726 443
769407 125890 509
415326 193926 449
880916 992826 507
929575 293543 525
250201 946027 525
697178 744322 504
522664 534470 408
899317 311411 525
695057 323469 509
81914 684812 509
383425 85857 443
337646 760086 509
434715 795193 509
209202 481404 449
890258 674357 525
402146 229789 443
407365 381485 436
563994 712490 509
665997 453125 509
338524 417073 449
846854 219898 525
464157 335979 449
352162 182944 443
756718 657320 504
291858 926833 525
755400 258407 509
117964 968090 525
186483 397324 443
842937 772507 525
157612 270013 443
629827 929143 525
556740 212675 470
329669 901153 525
946002 884341 507
648397 231459 509
801644 695755 504
431409 360784 449
275854 282364 389
520708 733198 509
795736 191666 509
429400 702051 509
76369 192097 383
593474 495008 470
103461 362513 443
798820 489159 509
938426 706124 525
18920 234877 443
458035 962040 525
20691 819524 509
457624 667120 509
629898 536862 509
765148 57587 509
500918 944770 525
48032 19376 324
23845 329084 443
562126 456694 470
551358 294150 470
191083 770586 509
606151 18612 470
962787 888487 507
286558 81146 443
422222 255787 449
684644 8534 509
655396 106582 509
673368 185984 509
117868 900783 525
407327 783501 509
606566 246207 470
658444 372270 509
368640 436402 449
440824 914350 525
824792 971406 525
501180 681701 509
988015 910055 507
97161 363159 443
27355 125502 354
342281 516981 470
301523 490111 449
957829 75287 525
463867 465935 369
519585 317964 470
543755 759441 509
797728 623981 509
351153 148333 443
355973 617452 470
823739 412367 509
986723 271675 525
977414 211541 525
678869 786370 504
414877 694576 509
809730 215660 509
316181 788103 509
501175 383451 449
592016 820529 509
146876 605125 470
109171 286473 443
427022 667996 509
739261 713601 424
513779 54618 470
604091 616582 447
184200 387531 443
290090 856405 525
116010 425049 449
916447 912942 370
298854 888007 525
910374 73784 525
840373 6344 525
629958 430313 509
724395 305059 509
778150 913099 525
357569 24843 443
905580 801395 525
